<?xml version="1.0" encoding="UTF-8"?>
<svg width="142px" height="112px" viewBox="0 0 142 112" version="1.1" xmlns="http://www.w3.org/2000/svg" xmlns:xlink="http://www.w3.org/1999/xlink">
    <defs></defs>
    <g id="Page-1" stroke="none" stroke-width="1" fill="none" fill-rule="evenodd">
        <g id="main" transform="translate(-543.000000, -885.000000)" stroke="#FFFFFF" fill="#000000">
            <g id="Categories_preview" transform="translate(190.000000, 743.000000)">
                <g id="category_3" transform="translate(212.000000, 0.000000)">
                    <g id="icon" transform="translate(122.000000, 108.000000)">
                        <path d="M89.8417014,130.797572 C88.2145791,130.033277 82.2689311,126.353823 81.5467402,113.551139 L84.8316852,113.551139 L94.7055251,113.551139 L97.9977797,113.551139 C97.7858006,117.312587 96.5987176,128.009797 89.8417014,130.797572 L89.8417014,130.797572 Z M99.3646793,110.890746 L94.8721845,110.890746 L94.1499937,110.890746 L92.7129216,110.890746 L86.6196192,110.890746 L85.3886785,110.890746 L83.9706115,110.890746 L80.1783786,110.890746 C79.4444924,110.890746 78.8509509,111.480806 78.8509509,112.220211 L78.8509509,112.66239 C79.4678832,130.046454 89.0084042,133.367187 89.4133574,133.496033 C89.5478545,133.544351 89.6867373,133.564849 89.8256202,133.564849 C89.9732746,133.564849 90.1180051,133.535566 90.2612738,133.490177 C100.693569,129.866361 100.70234,112.934725 100.696493,112.211426 C100.690645,111.474949 100.092718,110.890746 99.3646793,110.890746 L99.3646793,110.890746 Z M144.038176,85.6602066 C148.027769,85.6602066 151.276166,88.9106591 151.276166,92.9093015 C151.276166,96.9064796 148.027769,100.162789 144.038176,100.162789 C140.266411,100.162789 137.194907,97.2461665 136.864512,93.5520711 C136.876207,93.3529443 136.867435,93.1831008 136.876207,92.983974 C136.884979,92.8609839 136.851354,92.7438505 136.830887,92.6267171 C136.974156,88.7642424 140.139223,85.6602066 144.038176,85.6602066 L144.038176,85.6602066 Z M153.840382,93.8112288 C154.088909,95.2036524 154.084523,96.8259504 153.632789,98.733761 C152.444244,103.796853 146.894777,108.325524 142.599642,107.69154 C139.72696,107.275716 137.874702,104.528937 137.151049,100.004659 C138.936059,101.741162 141.357006,102.818789 144.033791,102.818789 C149.181228,102.818789 153.376952,98.846502 153.840382,93.8112288 L153.840382,93.8112288 Z M134.20527,93.5154669 C133.588338,107.499734 139.57492,109.941966 142.215156,110.322649 C142.609876,110.379752 143.004596,110.409035 143.405163,110.409035 C148.801127,110.409035 154.799405,105.373762 156.214548,99.3413907 C158.904489,87.8930625 148.789432,84.1755404 148.688559,84.1389362 C148.622772,84.1169737 148.55991,84.1228304 148.494123,84.111117 C147.146228,83.4200298 145.647756,83.0012778 144.035253,83.0012778 C138.580811,83.0012778 134.13656,87.4450272 134.13656,92.9093015 C134.142408,93.1157491 134.192113,93.3134118 134.20527,93.5154669 L134.20527,93.5154669 Z M47.077478,64.6171867 L132.065013,64.6171867 C134.814893,84.7963476 126.195385,89.6529922 126.066735,89.7203439 C109.256062,99.1583697 60.9964637,96.2622458 52.499757,89.2269194 C45.0454026,83.0569162 46.5014797,68.6377915 47.077478,64.6171867 L47.077478,64.6171867 Z M54.2891529,43.2037323 C59.3152503,42.2959482 67.889439,41.831807 79.7895066,41.831807 C82.5788591,41.831807 85.4281505,41.8581621 88.274518,41.9050154 L88.274518,43.3735758 L82.5525445,43.3735758 C81.8186582,43.3735758 81.2251168,43.9665637 81.2251168,44.7045043 L81.2251168,50.6285273 C81.2251168,51.3606112 81.8186582,51.9579917 82.5525445,51.9579917 L97.4407863,51.9579917 C98.1746725,51.9579917 98.768214,51.3606112 98.768214,50.6285273 L98.768214,44.7045043 C98.768214,43.9665637 98.1746725,43.3735758 97.4407863,43.3735758 L90.9308353,43.3735758 L90.9308353,41.9504046 C106.655298,42.2622724 121.726281,43.0924555 125.514128,43.3164732 L131.420304,61.9582579 L47.8055165,61.9582579 L54.2891529,43.2037323 Z M83.8814341,49.3005271 L96.1162825,49.3005271 L96.1162825,46.0339687 L83.8814341,46.0339687 L83.8814341,49.3005271 Z M127.309371,92.0717975 C127.755258,91.849244 138.121767,86.3410446 134.547361,63.0856671 C134.537127,63.0446704 134.51666,63.0124587 134.507889,62.9773187 C134.499117,62.9465712 134.510813,62.9158237 134.499117,62.883612 L127.768416,41.6400011 C127.60468,41.115829 127.129555,40.7527154 126.581333,40.7161112 C126.369354,40.705862 108.566034,39.6194495 90.1165432,39.2782984 C89.9557315,39.2109467 89.7817624,39.1743425 89.5990219,39.1743425 C89.4440578,39.1743425 89.3007892,39.2109467 89.1633683,39.2621925 C86.0187681,39.20509 82.8668583,39.1743425 79.7865828,39.1743425 C67.1014616,39.1743425 58.096005,39.7043712 53.0143545,40.7424662 C52.5553101,40.8361729 52.1795955,41.168539 52.0275553,41.6092535 L44.6828452,62.8528644 C44.6726118,62.8792195 44.6828452,62.909967 44.6755356,62.9421787 C44.6653021,62.9729262 44.6419113,63.0036737 44.6346017,63.0402779 C44.4796377,63.8558194 40.9330082,83.1096262 50.8068481,91.2782185 C56.1969647,95.7395379 73.0602669,98.3442924 90.101924,98.3442924 C104.775263,98.3428282 119.577251,96.4130551 127.309371,92.0717975 L127.309371,92.0717975 Z M152.017362,118.570307 C136.313366,123.358135 112.969351,124.116574 106.221106,124.236636 L108.748774,117.094426 C131.290192,116.524864 149.032111,113.387153 154.65175,112.281706 C153.806758,114.732723 152.885745,116.851374 152.017362,118.570307 L152.017362,118.570307 Z M150.847822,141.33958 C150.208961,142.004313 149.261634,142.342535 148.024845,142.342535 L140.364359,142.342535 C139.941863,142.310324 137.82792,141.957459 137.82792,138.562054 L137.82792,129.948355 C145.668223,127.744782 150.358077,125.844292 150.469183,125.80476 C150.682624,125.715446 150.868289,125.570493 151.011558,125.3904 C151.08173,125.298158 151.419435,124.851587 151.898946,124.129752 L151.898946,138.411245 C151.906256,138.427351 151.938418,140.206315 150.847822,141.33958 L150.847822,141.33958 Z M27.8955631,92.9078373 C27.8955631,88.909195 31.1410361,85.6587424 35.1335526,85.6587424 C39.1260692,85.6587424 42.3715422,88.909195 42.3715422,92.9078373 C42.3715422,96.9050154 39.1260692,100.161325 35.1335526,100.161325 C31.1395742,100.161325 27.8955631,96.9064796 27.8955631,92.9078373 L27.8955631,92.9078373 Z M35.1335526,102.818789 C37.8527327,102.818789 40.3175379,101.711878 42.1098576,99.9241295 C41.4022861,104.493797 39.538332,107.271324 36.6510306,107.69154 C32.3646671,108.329917 26.8049672,103.796853 25.6149605,98.733761 C25.1997738,96.962118 25.1603019,95.4291343 25.3635094,94.1069907 C25.9614366,98.9987754 30.0899122,102.818789 35.1335526,102.818789 L35.1335526,102.818789 Z M89.9995892,134.071451 C59.0491799,134.071451 34.0473425,124.712491 30.8778896,123.478197 C30.6732202,123.192684 30.3179725,122.668512 29.879395,121.96864 C48.5671794,126.861889 74.1684059,126.924848 75.3116311,126.924848 C75.741437,126.924848 76.1463901,126.71108 76.3949173,126.361144 C76.6434445,126.011208 76.7063073,125.557316 76.5645006,125.145884 L73.0997389,115.344745 C72.9155364,114.82643 72.4287154,114.470637 71.8761079,114.460388 C47.3260052,113.917181 28.3706887,110.272868 24.4600399,109.467575 C23.4790884,105.946252 22.7802883,101.871473 22.6867252,97.3706208 C22.7627452,98.0016771 22.8709277,98.654696 23.0317394,99.3413907 C24.4468826,105.36937 30.4407741,110.407571 35.8396623,110.407571 C36.2416916,110.407571 36.6378732,110.379752 37.0325929,110.322649 C39.712301,109.933181 45.8494612,107.44556 45.0249356,92.904909 L45.0249356,92.8990523 C45.0220118,92.8712331 45.0249356,92.8551272 45.0220118,92.8258439 C45.0220118,92.8155947 45.0147022,92.8024172 45.0147022,92.792168 C44.9533013,87.3791396 40.548522,82.9998137 35.1320907,82.9998137 C33.5093542,82.9998137 32.0006479,83.430279 30.6469055,84.1257587 C30.619129,84.1316154 30.5869666,84.1257587 30.55919,84.137472 C30.4758603,84.1682196 23.9381328,86.5826323 22.767131,93.4686136 C22.7934457,93.0483974 22.7978314,92.6355021 22.8343796,92.2094292 C24.4234918,73.7901981 40.8818408,64.9627303 41.0470383,64.8807369 C41.3438091,64.7240709 41.5704074,64.4649132 41.6829756,64.148653 L50.4355192,39.6487328 C55.1399931,38.4700777 76.3130495,37.8170589 89.9820461,37.6603929 C103.681743,37.8170589 124.8548,38.4715419 129.559273,39.6487328 L138.310355,64.148653 C138.422923,64.4649132 138.649522,64.7240709 138.947754,64.8807369 C139.112952,64.9627303 155.571301,73.7901981 157.161875,92.2094292 C157.730564,98.7571877 156.884109,104.575791 155.54791,109.38851 C152.597746,110.012246 133.190695,113.895219 107.769285,114.458923 C107.218139,114.467708 106.729856,114.822037 106.544192,115.343281 L103.080892,125.145884 C102.937623,125.554387 102.997562,126.009743 103.249013,126.361144 C103.497541,126.706687 103.898108,126.923384 104.330838,126.923384 C105.478449,126.923384 131.459776,126.853104 150.176799,121.860292 C149.713368,122.612874 149.330344,123.178043 149.112517,123.478197 C145.944526,124.718347 120.944151,134.071451 89.9995892,134.071451 L89.9995892,134.071451 Z M39.7225345,142.342535 L31.9714094,142.342535 C30.7419306,142.342535 29.7960653,142.007241 29.1586661,141.355686 C28.0592987,140.223885 28.092923,138.412709 28.092923,138.357071 L28.092923,124.122431 C28.5738962,124.844266 28.9145247,125.295229 28.9846971,125.38308 C29.1265038,125.563172 29.3136301,125.712517 29.5256092,125.797439 C29.6381774,125.836972 34.3280321,127.737461 42.1697966,129.941034 L42.1712585,138.56059 C42.1727204,141.954531 40.0558533,142.307395 39.7225345,142.342535 L39.7225345,142.342535 Z M25.3635094,112.354914 C31.3778679,113.518928 48.8537166,116.539506 70.9010041,117.094426 L73.4257481,124.241029 C66.7359804,124.120967 43.735518,123.368385 28.0300602,118.684512 C27.1543673,116.965579 26.2158116,114.82643 25.3635094,112.354914 L25.3635094,112.354914 Z M32.8266354,58.0547865 C33.0444622,57.4105527 36.5033762,57.4208018 40.8452927,58.5994569 L39.3541295,62.7737994 C38.664101,63.1705889 37.2884298,64.0110212 35.5896732,65.2877755 C34.6642748,64.9978703 33.9113835,64.384384 33.3704714,63.4282824 C32.3997533,61.715206 32.3602814,59.4311042 32.8266354,58.0547865 L32.8266354,58.0547865 Z M146.865539,58.0547865 C147.328969,59.4252476 147.296807,61.715206 146.326089,63.4282824 C145.823187,64.3111756 145.143392,64.9026994 144.315942,65.2204238 C142.659581,63.9788095 141.320458,63.1588755 140.643587,62.7737994 L139.126109,58.5203919 C143.099621,57.4822969 146.631631,57.3534501 146.865539,58.0547865 L146.865539,58.0547865 Z M154.556725,119.504446 C157.438179,113.750266 160.854697,104.111649 159.806497,91.9766266 C158.752449,79.7522894 151.878479,71.6012672 146.552687,67.0213502 C147.377213,66.4547173 148.092094,65.702135 148.637392,64.7416409 C149.875642,62.5556384 150.175337,59.5277393 149.385897,57.1967842 C148.229515,53.7955223 141.914,54.9785699 138.224102,56.0034874 L131.839876,38.1303908 C131.709765,37.765813 131.430537,37.4759078 131.076751,37.3368118 C126.294795,35.4670695 93.715802,35.0409967 89.9878938,35 C86.2892242,35.0409967 53.7102307,35.4670695 48.9297367,37.3368118 C48.5759509,37.477372 48.2952613,37.7672772 48.16515,38.1303908 L41.7502242,56.0825524 C38.1129553,55.04885 31.5050554,53.7149931 30.3150486,57.1982483 C29.5256092,59.5292035 29.8267657,62.5629592 31.0635541,64.7431051 C31.6468621,65.7709509 32.424606,66.5557449 33.3266136,67.1311628 C28.0169029,71.7286498 21.2408816,79.8474603 20.1941434,91.9780907 C19.1444814,104.113114 22.5609996,113.75173 25.4395295,119.504446 L25.4395295,138.307289 C25.4380676,138.427351 25.3532759,141.225375 27.236235,143.188824 C28.3926175,144.387978 29.9861155,145 31.9728713,145 L39.7970927,144.995607 C41.5367831,144.901901 44.8261139,143.434805 44.8261139,138.56059 L44.8261139,130.664333 C55.8534124,133.583884 71.9272752,136.727452 89.9981273,136.727452 C108.070441,136.727452 124.142842,133.585348 135.170141,130.664333 L135.170141,138.56059 C135.170141,143.430412 138.459471,144.900437 140.272258,144.997072 L148.024845,144.997072 C150.007215,144.997072 151.605099,144.38505 152.761482,143.188824 C154.638593,141.222447 154.558187,138.427351 154.556725,138.357071 L154.556725,119.504446 Z" id="cat_icon_3"></path>
                    </g>
                </g>
            </g>
        </g>
    </g>
</svg>