<?xml version="1.0" encoding="UTF-8"?>
<svg width="42px" height="34px" viewBox="0 0 42 34" version="1.1" xmlns="http://www.w3.org/2000/svg" xmlns:xlink="http://www.w3.org/1999/xlink">
    <!-- Generator: Sketch 45.1 (43504) - http://www.bohemiancoding.com/sketch -->
    <title>chip</title>
    <desc>Created with Sketch.</desc>
    <defs></defs>
    <g id="Accounts" stroke="none" stroke-width="1" fill="none" fill-rule="evenodd">
        <g id="Buyer_personal_info_2" transform="translate(-414.000000, -392.000000)" stroke="#FFFFFF" fill="#E3D3C1">
            <g id="card_info_1" transform="translate(395.000000, 342.000000)">
                <g id="card_visa" transform="translate(0.000000, 31.000000)">
                    <g id="chip" transform="translate(20.000000, 20.000000)">
                        <rect id="Rectangle-14" x="0" y="0" width="40" height="32" rx="4"></rect>
                        <path d="M0,24 L10,24 L10,24 C12.209139,24 14,25.790861 14,28 L14,28 L14,28 C14,30.209139 12.209139,32 10,32 L4,32 L4,32 C1.790861,32 2.705415e-16,30.209139 0,28 L0,24 Z" id="Rectangle-14"></path>
                        <path d="M0,16 L10,16 L10,16 C12.209139,16 14,17.790861 14,20 L14,20 L14,20 C14,22.209139 12.209139,24 10,24 L0,24 L0,16 Z" id="Rectangle-14-Copy"></path>
                        <path d="M0,8 L10,8 L10,8 C12.209139,8 14,9.790861 14,12 L14,12 L14,12 C14,14.209139 12.209139,16 10,16 L0,16 L0,8 Z" id="Rectangle-14-Copy-2"></path>
                        <path d="M26,24 L36,24 L36,24 C38.209139,24 40,25.790861 40,28 L40,28 L40,28 C40,30.209139 38.209139,32 36,32 L30,32 L30,32 C27.790861,32 26,30.209139 26,28 L26,24 Z" id="Rectangle-14-Copy-6" transform="translate(33.000000, 28.000000) scale(-1, 1) translate(-33.000000, -28.000000) "></path>
                        <path d="M26,16 L36,16 L36,16 C38.209139,16 40,17.790861 40,20 L40,20 L40,20 C40,22.209139 38.209139,24 36,24 L26,24 L26,16 Z" id="Rectangle-14-Copy-5" transform="translate(33.000000, 20.000000) scale(-1, 1) translate(-33.000000, -20.000000) "></path>
                        <path d="M26,8 L36,8 L36,8 C38.209139,8 40,9.790861 40,12 L40,12 L40,12 C40,14.209139 38.209139,16 36,16 L26,16 L26,8 Z" id="Rectangle-14-Copy-4" transform="translate(33.000000, 12.000000) scale(-1, 1) translate(-33.000000, -12.000000) "></path>
                        <path d="M4,0 L10,0 L10,-1.77635684e-15 C12.209139,-2.18216909e-15 14,1.790861 14,4 L14,4 L14,4 C14,6.209139 12.209139,8 10,8 L0,8 L0,4 L0,4 C-2.705415e-16,1.790861 1.790861,4.05812251e-16 4,0 Z" id="Rectangle-14-Copy-3"></path>
                    </g>
                </g>
            </g>
        </g>
    </g>
</svg>