<?xml version="1.0" encoding="UTF-8"?>
<svg width="54px" height="18px" viewBox="0 0 54 18" version="1.1" xmlns="http://www.w3.org/2000/svg" xmlns:xlink="http://www.w3.org/1999/xlink">
    <!-- Generator: Sketch 45.1 (43504) - http://www.bohemiancoding.com/sketch -->
    <title>visa_logo</title>
    <desc>Created with Sketch.</desc>
    <defs></defs>
    <g id="Accounts" stroke="none" stroke-width="1" fill="none" fill-rule="evenodd">
        <g id="Buyer_personal_info_2" transform="translate(-591.000000, -505.000000)">
            <g id="card_info_1" transform="translate(395.000000, 342.000000)">
                <g id="card_visa" transform="translate(0.000000, 31.000000)">
                    <g id="visa_logo" transform="translate(196.000000, 132.000000)">
                        <path d="M32.29713,5.421555 C32.29713,3.519405 36.56268,3.763755 38.43693,4.796505 L39.06153,1.183455 C39.06153,1.183455 37.13283,0.449955 35.12223,0.449955 C32.94873,0.449955 27.78768,1.400355 27.78768,6.019155 C27.78768,10.365705 33.84513,10.419705 33.84513,12.702105 C33.84513,14.984055 28.41183,14.576355 26.61903,13.136355 L25.96743,16.913205 C25.96743,16.913205 27.92268,17.863605 30.91158,17.863605 C33.90003,17.863605 38.40948,16.315605 38.40948,12.104505 C38.40948,7.730505 32.29713,7.323255 32.29713,5.421555 L32.29713,5.421555 Z M48.43098,11.623005 L47.13633,5.327505 L44.83458,11.623005 L48.43098,11.623005 Z M53.67573,17.574255 L49.65408,17.574255 L49.14063,15.075405 L43.57278,15.075405 L42.65928,17.574255 L38.09448,17.574255 L44.62578,2.004705 C44.62578,2.004705 45.02178,0.751005 46.64808,0.751005 L50.16933,0.751005 L53.67573,17.574255 Z M15.20433,0.751005 L11.02833,12.321855 L10.53468,9.830205 L10.53513,9.831105 L9.06093,2.266155 C9.06093,2.266155 8.88318,0.751005 6.98328,0.751005 L0.08073,0.751005 L0.00018,1.035855 C0.00018,1.035855 2.11158,1.474605 4.58118,2.959155 L8.38638,17.574255 L12.94983,17.574255 L19.91808,0.751005 L15.20433,0.751005 Z M26.00658,0.751005 L23.26878,17.574255 L18.88893,17.574255 L21.62628,0.751005 L26.00658,0.751005 Z" id="Fill-1" fill="#FFFFFF"></path>
                        <path d="M10.534995,9.831015 L9.061245,2.266065 C9.061245,2.266065 8.883045,0.750915 6.983145,0.750915 L0.081045,0.750915 L4.49999998e-05,1.035765 C4.49999998e-05,1.035765 3.317895,1.723365 6.500745,4.299615 C9.542745,6.762015 10.534995,9.831015 10.534995,9.831015" id="Fill-4" fill="#E3D3C1"></path>
                    </g>
                </g>
            </g>
        </g>
    </g>
</svg>