<?xml version="1.0" encoding="UTF-8"?>
<svg width="12" height="20" viewBox="0 0 12 20" xmlns="http://www.w3.org/2000/svg">
	<path d="M10 20l2-2-7.995-8L12 2l-2-2L0 9.995" fill="#333" fill-rule="evenodd"/>
</svg>