<?xml version="1.0" encoding="UTF-8"?>
<svg width="282px" height="182px" viewBox="0 0 282 182" version="1.1" xmlns="http://www.w3.org/2000/svg" xmlns:xlink="http://www.w3.org/1999/xlink">
    <!-- Generator: Sketch 45.1 (43504) - http://www.bohemiancoding.com/sketch -->
    <title>card_master_bg</title>
    <desc>Created with Sketch.</desc>
    <defs>
        <radialGradient cx="100%" cy="0%" fx="100%" fy="0%" r="109.236224%" gradientTransform="translate(1.000000,0.000000),scale(0.629630,1.000000),rotate(124.922786),translate(-1.000000,-0.000000)" id="radialGradient-1">
            <stop stop-color="#E6D8C9" offset="0%"></stop>
            <stop stop-color="#BDA489" offset="100%"></stop>
        </radialGradient>
        <rect id="path-2" x="0" y="0" width="270" height="170" rx="10"></rect>
        <filter x="-3.7%" y="-4.7%" width="107.4%" height="111.8%" filterUnits="objectBoundingBox" id="filter-4">
            <feOffset dx="0" dy="2" in="SourceAlpha" result="shadowOffsetOuter1"></feOffset>
            <feGaussianBlur stdDeviation="3" in="shadowOffsetOuter1" result="shadowBlurOuter1"></feGaussianBlur>
            <feColorMatrix values="0 0 0 0 0   0 0 0 0 0   0 0 0 0 0  0 0 0 0.1 0" type="matrix" in="shadowBlurOuter1"></feColorMatrix>
        </filter>
        <linearGradient x1="0%" y1="0%" x2="100%" y2="100%" id="linearGradient-5">
            <stop stop-color="#BDA489" stop-opacity="0" offset="0%"></stop>
            <stop stop-color="#E6D8C9" offset="100%"></stop>
        </linearGradient>
    </defs>
    <g id="Accounts" stroke="none" stroke-width="1" fill="none" fill-rule="evenodd">
        <g id="Buyer_personal_info_2" transform="translate(-389.000000, -600.000000)">
            <g id="card_info_2" transform="translate(395.000000, 573.000000)">
                <g id="card_master" transform="translate(0.000000, 31.000000)">
                    <g id="card_master_bg">
                        <mask id="mask-3" fill="white">
                            <use xlink:href="#path-2"></use>
                        </mask>
                        <g id="card_bg_2">
                            <use fill="black" fill-opacity="1" filter="url(#filter-4)" xlink:href="#path-2"></use>
                            <use fill="url(#radialGradient-1)" fill-rule="evenodd" xlink:href="#path-2"></use>
                        </g>
                        <g id="pattern" mask="url(#mask-3)" fill="url(#linearGradient-5)">
                            <g transform="translate(-36.000000, -18.000000)">
                                <circle id="Oval" transform="translate(80.000000, 78.000000) scale(-1, 1) translate(-80.000000, -78.000000) " cx="80" cy="78" r="70"></circle>
                                <circle id="Oval-Copy" transform="translate(150.000000, 40.000000) scale(-1, 1) translate(-150.000000, -40.000000) " cx="150" cy="40" r="40"></circle>
                                <circle id="Oval-Copy-7" transform="translate(131.118703, 130.118703) scale(-1, 1) translate(-131.118703, -130.118703) " cx="131.118703" cy="130.118703" r="35.1187028"></circle>
                                <circle id="Oval-Copy-4" transform="translate(80.000000, 48.000000) scale(-1, 1) translate(-80.000000, -48.000000) " cx="80" cy="48" r="10"></circle>
                                <circle id="Oval-Copy-5" transform="translate(86.000000, 155.000000) scale(-1, 1) translate(-86.000000, -155.000000) " cx="86" cy="155" r="10"></circle>
                                <circle id="Oval-Copy-6" transform="translate(160.000000, 188.000000) scale(-1, 1) translate(-160.000000, -188.000000) " cx="160" cy="188" r="15"></circle>
                                <circle id="Oval-Copy-3" transform="translate(30.000000, 125.000000) scale(-1, 1) translate(-30.000000, -125.000000) " cx="30" cy="125" r="30"></circle>
                                <circle id="Oval-Copy-2" transform="translate(190.000000, 95.000000) scale(-1, 1) translate(-190.000000, -95.000000) " cx="190" cy="95" r="15"></circle>
                            </g>
                        </g>
                    </g>
                </g>
            </g>
        </g>
    </g>
</svg>