<?xml version="1.0" encoding="UTF-8"?>
<svg width="37px" height="22px" viewBox="0 0 37 22" version="1.1" xmlns="http://www.w3.org/2000/svg" xmlns:xlink="http://www.w3.org/1999/xlink">
    <!-- Generator: Sketch 45.1 (43504) - http://www.bohemiancoding.com/sketch -->
    <title>mastercard_logo</title>
    <desc>Created with Sketch.</desc>
    <defs></defs>
    <g id="Accounts" stroke="none" stroke-width="1" fill="none" fill-rule="evenodd">
        <g id="Buyer_personal_info_2" transform="translate(-607.000000, -732.000000)">
            <g id="card_info_2" transform="translate(395.000000, 573.000000)">
                <g id="card_master" transform="translate(0.000000, 31.000000)">
                    <g id="mastercard_logo" transform="translate(212.000000, 128.000000)">
                        <polygon id="Fill-1" fill="#B59A7C" points="11.0503037 -3.92857141e-05 10.4811574 0.0148892857 9.91930023 0.05555 9.36867235 0.126264286 8.82159055 0.222514286 8.28967811 0.345085714 7.76505484 0.493389286 7.25146382 0.667621429 6.74929908 0.864246429 6.25816659 1.08699643 5.78180945 1.32821071 5.32062166 1.591425 4.87046613 1.87703214 4.43882903 2.18503214 4.02196728 2.5113 3.62027488 2.856425 3.23690392 3.22001429 2.8685053 3.60206786 2.52256521 4.00278214 2.19514355 4.41449643 1.88643733 4.84487143 1.59979562 5.29390714 1.33186935 5.75001429 1.0901447 6.22497857 0.866938479 6.71094286 0.669736866 7.20810357 0.494796774 7.71999643 0.34586129 8.23935357 0.223324424 8.76990714 0.126398157 9.30772857 0.0558705069 9.85674643 0.0148935484 10.413425 -7.88018433e-05 10.9773714 0.0148935484 11.5448536 0.0558705069 12.1050679 0.126398157 12.6538893 0.223324424 13.1993714 0.34586129 13.729925 0.494796774 14.2528179 0.669736866 14.7651036 0.866938479 15.2658 1.0901447 15.7554964 1.33186935 16.2300679 1.59979562 16.6903 1.88643733 17.1391393 2.19514355 17.5695143 2.52256521 17.9851571 2.8685053 18.385675 3.23690392 18.767925 3.62027488 19.13505 4.02196728 19.480175 4.43882903 19.8064429 4.87046613 20.1144429 5.32062166 20.40005 5.78180945 20.6671929 6.25816659 20.9084071 6.74929908 21.1309607 7.25146382 21.3275857 7.76505484 21.5018179 8.28967811 21.6503179 8.82159055 21.7726929 9.36867235 21.8693357 9.91930023 21.9396571 10.4811574 21.9803179 11.0503037 21.9952464 11.6159039 21.9803179 12.1777611 21.9396571 12.7285859 21.8693357 13.2715306 21.7726929 13.8036401 21.6503179 14.3282634 21.5018179 14.8379143 21.3275857 15.340276 21.1309607 15.8278624 20.9084071 16.3002795 20.6671929 16.7616643 20.40005 17.2080767 20.1144429 17.6397138 19.8064429 18.0565756 19.480175 18.4545249 19.13505 18.8376988 18.767925 19.2023544 18.385675 19.5482945 17.9851571 19.8757161 17.5695143 20.1808763 17.1391393 20.467518 16.6903 20.7317012 16.2300679 20.9769719 15.7554964 21.196632 15.2658 21.3938336 14.7651036 21.5650306 14.2528179 21.7137691 13.729925 21.8367 13.1993714 21.9332323 12.6538893 22.0039569 12.1050679 22.0449339 11.5448536 22.0599062 10.9773714 22.0449339 10.413425 22.0039569 9.85674643 21.9332323 9.30772857 21.8367 8.76990714 21.7137691 8.23935357 21.5650306 7.71999643 21.3938336 7.20810357 21.196632 6.71094286 20.9769719 6.22497857 20.7317012 5.75001429 20.467518 5.29390714 20.1808763 4.84487143 19.8757161 4.41449643 19.5482945 4.00278214 19.2023544 3.60206786 18.8376988 3.22001429 18.4545249 2.856425 18.0565756 2.5113 17.6397138 2.18503214 17.2080767 1.87703214 16.7616643 1.591425 16.3002795 1.32821071 15.8278624 1.08699643 15.340276 0.864246429 14.8379143 0.667621429 14.3282634 0.493389286 13.8036401 0.345085714 13.2715306 0.222514286 12.7285859 0.126264286 12.1777611 0.05555 11.6159039 0.0148892857"></polygon>
                        <path d="M25.8066187,-3.92857141e-05 L25.2408214,0.0148892857 L24.6791613,0.05555 L24.1285334,0.126264286 L23.5851947,0.222514286 L23.0532823,0.345085714 L22.528659,0.493389286 L22.0188111,0.667621429 L21.5168433,0.864246429 L21.0292569,1.08699643 L20.5566429,1.32821071 L20.0952581,1.591425 L19.6488456,1.87703214 L19.2172085,2.18503214 L18.8005438,2.5113 L18.4284021,2.83383571 L18.4546037,2.856425 L18.8377776,3.22001429 L19.2024332,3.60206786 L19.2185876,3.62072857 L17.6433387,3.62072857 L17.1374309,4.21806786 L19.7195703,4.21806786 L19.8757949,4.41449643 L20.1809551,4.84487143 L20.2473456,4.94897857 L16.6126106,4.94897857 L16.2593813,5.54612143 L20.6133802,5.54612143 L20.7315829,5.75001429 L20.9770507,6.22497857 L20.9989182,6.27310357 L15.8649781,6.27310357 L15.604341,6.87063929 L21.2597523,6.87063929 L21.3939124,7.20810357 L21.5253145,7.60135357 L15.3403548,7.60135357 L15.1541855,8.1983 L21.7020276,8.1983 L21.7136509,8.23935357 L21.8365818,8.76990714 L21.8645565,8.925675 L15.005447,8.925675 L14.8901993,9.52301429 L21.9608917,9.52301429 L22.0040357,9.85674643 L22.0450127,10.413425 L22.059788,10.9773714 L22.0497408,11.3664964 L20.1884412,11.3664964 L20.0767396,11.9677643 L22.0140829,11.9677643 L22.0040357,12.1050679 L21.9333111,12.6538893 L21.9260219,12.6949429 L19.9427765,12.6949429 L19.8310749,13.2920857 L21.8151083,13.2920857 L21.7136509,13.729925 L21.6315,14.0192643 L15.2286532,14.0192643 L15.4148226,14.6166036 L21.4435576,14.6166036 L21.3939124,14.7651036 L21.1965138,15.2658 L21.159871,15.3475143 L15.6975242,15.3475143 L15.9764827,15.9446571 L20.8793364,15.9446571 L20.7315829,16.2300679 L20.478038,16.6716393 L16.3894044,16.6716393 L16.7652892,17.269175 L20.0889539,17.269175 L19.8757949,17.5695143 L19.5483733,17.9851571 L19.53872,17.9959607 L17.3271463,17.9959607 L17.8519666,18.5970321 L19.0007005,18.5970321 L18.8377776,18.767925 L18.4546037,19.13505 L18.4284021,19.1574429 L18.8005438,19.480175 L19.2172085,19.8064429 L19.6488456,20.1144429 L20.0952581,20.40005 L20.5566429,20.6671929 L21.0292569,20.9084071 L21.5168433,21.1309607 L22.0188111,21.3275857 L22.528659,21.5018179 L23.0532823,21.6503179 L23.5851947,21.7726929 L24.1285334,21.8693357 L24.6791613,21.9396571 L25.2408214,21.9803179 L25.8066187,21.9952464 L26.375765,21.9803179 L26.9376221,21.9396571 L27.48825,21.8693357 L28.0353318,21.7726929 L28.5672442,21.6503179 L29.0918675,21.5018179 L29.6054585,21.3275857 L30.1076233,21.1309607 L30.5987558,20.9084071 L31.0751129,20.6671929 L31.5363007,20.40005 L31.9866532,20.1144429 L32.4180933,19.8064429 L32.8347581,19.480175 L33.2366475,19.13505 L33.6198214,18.767925 L33.9884171,18.385675 L34.3341601,17.9851571 L34.6617788,17.5695143 L34.970485,17.1391393 L35.2569297,16.6903 L35.525053,16.2300679 L35.7667776,15.7554964 L35.9899839,15.2658 L36.1871855,14.7651036 L36.3621256,14.2528179 L36.5110611,13.729925 L36.6335979,13.1993714 L36.7305242,12.6538893 L36.8010518,12.1050679 L36.8420288,11.5448536 L36.8570012,10.9773714 L36.8420288,10.413425 L36.8010518,9.85674643 L36.7305242,9.30772857 L36.6335979,8.76990714 L36.5110611,8.23935357 L36.3621256,7.71999643 L36.1871855,7.20810357 L35.9899839,6.71094286 L35.7667776,6.22497857 L35.525053,5.75001429 L35.2569297,5.29390714 L34.970485,4.84487143 L34.6617788,4.41449643 L34.3341601,4.00278214 L33.9884171,3.60206786 L33.6198214,3.22001429 L33.2366475,2.856425 L32.8347581,2.5113 L32.4180933,2.18503214 L31.9866532,1.87703214 L31.5363007,1.591425 L31.0751129,1.32821071 L30.5987558,1.08699643 L30.1076233,0.864246429 L29.6054585,0.667621429 L29.0918675,0.493389286 L28.5672442,0.345085714 L28.0353318,0.222514286 L27.48825,0.126264286 L26.9376221,0.05555 L26.375765,0.0148892857 L25.8066187,-3.92857141e-05 Z M14.6853145,11.3664964 L14.7227454,11.9677643 L15.4890933,11.9677643 L15.4890933,11.3664964 L14.6853145,11.3664964 Z" id="Fill-2" fill="#E3D3C1"></path>
                        <path d="M21.5363074,10.184075 L21.56507,10.115325 L21.6391438,9.97527143 L21.734888,9.81361071 L21.7843362,9.74348571 L21.7451323,9.74348571 L21.6803177,9.73189643 L21.6568742,9.73209286 L21.5983638,9.72443214 L21.4547475,9.73189643 L21.348956,9.74328929 L21.2510447,9.76214643 L21.1598316,9.78493214 L21.0721645,9.815575 L20.9933627,9.85289643 L20.920668,9.8912 L20.8525044,9.936575 L20.7876899,9.986075 L20.7276035,10.0422536 L20.6708661,10.098825 L20.5581795,10.2265036 L20.450812,10.3704857 L20.5713788,9.76528929 L19.4598788,9.76528929 L18.7609065,13.7559321 L18.7565724,13.7806821 L19.8678753,13.7806821 L20.2278028,11.6523786 L20.2423811,11.5720393 L20.279221,11.4184321 L20.3048316,11.3449679 L20.3337912,11.2726821 L20.3696461,11.2041286 L20.4129871,11.1391107 L20.4632233,11.0780214 L20.5219306,11.0230214 L20.5855631,10.9699857 L20.665941,10.9259857 L20.75282,10.8863071 L20.8558535,10.8531107 L20.9689341,10.8238429 L21.094032,10.805575 L21.2374514,10.7943786 L21.2435585,10.7937893 L21.2821714,10.8018429 L21.2967498,10.80145 L21.3387118,10.8118607 L21.3655044,10.8130393 L21.4697198,10.3901286 L21.5363074,10.184075 Z M31.1643166,10.7201286 L31.2752302,10.7201286 L31.4505643,9.72246786 L31.3181772,9.73189643 L31.2159318,9.74328929 L31.1209756,9.76234286 L31.0303535,9.78866429 L30.9468235,9.81911071 L30.8676276,9.856825 L30.7919779,9.89827143 L30.7196772,9.94403929 L30.5874871,10.0495214 L30.4675113,10.1693429 L30.3002544,10.3697 L30.4007267,9.76528929 L29.3122763,9.76528929 L28.6133039,13.7559321 L28.6089698,13.7806821 L29.7013604,13.7806821 L30.0945816,11.572825 L30.1389076,11.4111643 L30.1678673,11.3312179 L30.2043131,11.2512714 L30.2484422,11.1742714 L30.2949353,11.1021821 L30.3530516,11.0336286 L30.4186541,10.9715571 L30.4913488,10.9134143 L30.5740908,10.8592 L30.66885,10.8155929 L30.7750355,10.7790571 L30.8926472,10.7495929 L31.0203062,10.7275929 L31.1643166,10.7201286 Z M27.4547198,11.9678429 L27.4474306,11.9456464 L27.4326553,11.9269857 L27.4064537,11.9157893 L27.3692198,11.9047893 L27.3282429,11.9008607 L27.2799767,11.897325 L27.2240274,11.897325 L27.1682751,11.9008607 L27.1087797,11.908325 L27.0490873,11.9157893 L26.9897889,11.9230571 L26.9338396,11.9307179 L26.8780873,11.9417179 L26.8296242,11.9491821 L26.7813581,11.9603786 L26.7441242,11.9678429 L26.7181196,11.971575 L26.6883719,11.982575 L26.651138,11.9937714 L26.6101611,12.0085036 L26.5618949,12.0307 L26.5171749,12.0530929 L26.4651657,12.0790214 L26.4167025,12.1124143 L26.3682394,12.1458071 L26.3199733,12.1866643 L26.2789963,12.227325 L26.2380194,12.2756464 L26.2047256,12.3275036 L26.178524,12.3832893 L26.1562624,12.4426107 L26.1452302,12.5056643 L26.1414871,12.6317714 L26.1600055,12.7321464 L26.1897532,12.8062 L26.2344733,12.8617893 L26.2902256,12.8989143 L26.3534641,12.9213071 L26.4167025,12.9323071 L26.479941,12.9360393 L26.5916426,12.9323071 L26.6956611,12.9213071 L26.7925873,12.9026464 L26.8780873,12.8767179 L26.9600412,12.8470571 L27.0307659,12.8136643 L27.0975505,12.7763429 L27.1570459,12.7321464 L27.2092521,12.6910929 L27.2537751,12.6429679 L27.2947521,12.5983786 L27.3282429,12.5502536 L27.3542475,12.5056643 L27.3729629,12.4612714 L27.3877382,12.4164857 L27.3989675,12.375825 L27.4139399,12.2719143 L27.4326553,12.1644679 L27.4474306,12.0605571 L27.4547198,11.9678429 Z M28.7681495,10.9809857 L28.3776864,12.9397714 L28.2250078,13.7633964 L28.2212647,13.7818607 L28.2027463,13.7855929 L27.2689445,13.7855929 L27.2427429,13.7855929 L27.2462889,13.7594679 L27.2537751,13.6074321 L27.2537751,13.4738607 L27.2565332,13.4005929 L27.1980228,13.4591286 L27.1310412,13.5109857 L27.0530274,13.5630393 L26.9748166,13.6148964 L26.8853765,13.6592893 L26.7888442,13.7038786 L26.6956611,13.7410036 L26.5916426,13.7706643 L26.4874272,13.800325 L26.3834088,13.8189857 L26.2754502,13.8337179 L26.1674917,13.8411821 L26.0632763,13.8449143 L25.9628039,13.8337179 L25.8585885,13.8189857 L25.7248224,13.7855929 L25.6018915,13.7482714 L25.49413,13.7001464 L25.3974007,13.6410214 L25.3117037,13.5815036 L25.2372359,13.5109857 L25.1777406,13.4404679 L25.1257313,13.3626821 L25.0774652,13.2847 L25.0437774,13.19945 L25.0140297,13.1140036 L24.9955113,13.0324857 L24.9805389,12.9470393 L24.9695067,12.8580571 L24.9620205,12.7763429 L24.9582774,12.694825 L24.9695067,12.5502536 L24.9917682,12.4092179 L25.025259,12.2756464 L25.0735251,12.1495393 L25.1292774,12.0271643 L25.2037452,11.9157893 L25.281956,11.8118786 L25.3711991,11.7191643 L25.4679283,11.6301821 L25.5684007,11.5522 L25.6799053,11.4781464 L25.79535,11.4186286 L25.9145378,11.366575 L26.0372717,11.3259143 L26.1637486,11.2927179 L26.2939687,11.270325 L26.3012578,11.270325 L26.3162302,11.2665929 L26.3459779,11.2628607 L26.3834088,11.259325 L26.4316749,11.2518607 L26.4836841,11.2481286 L26.5394364,11.2406643 L26.5989318,11.2332 L26.6623673,11.2259321 L26.7291518,11.2184679 L26.7925873,11.2145393 L26.8558258,11.2072714 L26.9153212,11.2035393 L26.9673304,11.1998071 L27.0195366,11.1925393 L27.0605136,11.1925393 L27.1497567,11.1925393 L27.2389998,11.1998071 L27.3244998,11.1998071 L27.4064537,11.1998071 L27.4771783,11.2072714 L27.5366737,11.2110036 L27.5681945,11.2143429 L27.5701645,11.2072714 L27.5813938,11.1404857 L27.592426,11.0662357 L27.5961691,10.9959143 L27.5999122,10.9959143 L27.5851369,10.9179321 L27.5553892,10.8511464 L27.5104721,10.7880929 L27.4584629,10.7362357 L27.3952244,10.69145 L27.3207567,10.6582536 L27.2427429,10.6358607 L27.1570459,10.6321286 L27.1570459,10.6285929 L27.0530274,10.6248607 L26.9413258,10.6248607 L26.8260781,10.6248607 L26.7068903,10.6248607 L26.5841565,10.6321286 L26.4651657,10.643325 L26.3459779,10.6545214 L26.2307302,10.66945 L26.1227717,10.6841821 L26.0148131,10.7028429 L25.9180839,10.7213071 L25.8288408,10.7399679 L25.7470839,10.7619679 L25.6838454,10.7843607 L25.6353823,10.8102893 L25.5981484,10.82895 L25.5611115,10.8065571 L25.8213546,9.91261071 L25.8250977,9.89768214 L25.836327,9.89395 L25.9180839,9.86055714 L26.0037809,9.83089643 L26.093024,9.80496786 L26.1822671,9.78650357 L26.2754502,9.76784286 L26.3682394,9.75311071 L26.4687118,9.73818214 L26.5693811,9.73071786 L26.6733995,9.72325357 L26.7813581,9.71971786 L26.8893166,9.71225357 L27.0045643,9.71225357 L27.120009,9.71225357 L27.2389998,9.71225357 L27.3654767,9.71598571 L27.4919537,9.72325357 L27.5961691,9.73071786 L27.7116138,9.74918214 L27.8268615,9.77530714 L27.9495954,9.8087 L28.0650401,9.85309286 L28.1840309,9.90514643 L28.2957325,9.97193214 L28.403494,10.04245 L28.4964802,10.1239679 L28.5857233,10.2166821 L28.660388,10.3205929 L28.7198834,10.4357 L28.7608604,10.558075 L28.786865,10.6879143 L28.786865,10.82895 L28.7681495,10.9809857 Z M6.90122903,8.86741429 L5.02357811,8.86741429 L3.83701935,11.6859679 L3.67370253,8.86741429 L1.87583848,8.86741429 L1.02812765,13.7559321 L1.02379355,13.7806821 L2.07914724,13.7806821 L2.69695369,10.14145 L2.71429009,10.14145 L2.72079124,10.2997714 L2.88824516,13.2043607 L2.91424977,13.6084143 L2.92272097,13.7806821 L4.09942949,13.7806821 L5.61380392,10.14145 L5.61518295,10.14145 L4.97964608,13.7559321 L4.97531198,13.7806821 L6.03046866,13.7806821 L6.89669793,8.89236071 L6.90122903,8.86741429 Z M8.99282696,11.9678429 L8.98908387,11.9491821 L8.97430853,11.9307179 L8.95185,11.9195214 L8.91481313,11.9120571 L8.87383618,11.9047893 L8.82537304,11.9008607 L8.76962074,11.9008607 L8.71386843,11.9008607 L8.65417604,11.9047893 L8.59093756,11.9120571 L8.53144217,11.9195214 L8.47194677,11.9269857 L8.41619447,11.9342536 L8.36398825,11.9456464 L8.31946521,11.9566464 L8.27848825,11.9678429 L8.25228664,11.9751107 L8.22253894,11.9863071 L8.18175899,12.0012357 L8.14078203,12.0197 L8.09231889,12.0418964 L8.04405276,12.0680214 L7.99204355,12.09395 L7.94358041,12.1236107 L7.8915712,12.1605393 L7.84310806,12.1976643 L7.79858502,12.2422536 L7.75760806,12.2868429 L7.72037419,12.3349679 L7.69436959,12.3870214 L7.67210806,12.4463429 L7.6608788,12.5056643 L7.65713571,12.6317714 L7.67565415,12.7321464 L7.71308502,12.8062 L7.76135115,12.8617893 L7.81710346,12.8989143 L7.88053894,12.9213071 L7.93983733,12.9323071 L7.99952972,12.9360393 L8.11103433,12.9323071 L8.21150668,12.9213071 L8.30823594,12.9061821 L8.39373594,12.8839857 L8.46820369,12.8580571 L8.53892834,12.8246643 L8.60216682,12.7912714 L8.65791912,12.7504143 L8.70638226,12.7134857 L8.7511023,12.6688964 L8.78813917,12.6280393 L8.81788687,12.5836464 L8.84408848,12.5390571 L8.86635,12.4946643 L8.88486843,12.4538071 L8.8960977,12.41295 L8.92584539,12.3055036 L8.95185,12.1829321 L8.97430853,12.0640929 L8.99282696,11.9678429 Z M10.2863592,10.9803964 L9.91027742,12.9399679 L9.75838687,13.7806821 L8.77789493,13.7806821 L8.80823364,13.6038964 L8.83817834,13.3872357 L8.78085,13.4443964 L8.7083523,13.5017536 L8.62895945,13.5545929 L8.53833733,13.6072357 L8.34684885,13.6972 L8.24499747,13.7349143 L8.13585691,13.7687 L8.02671636,13.7950214 L7.91816682,13.8176107 L7.80508618,13.8325393 L7.69574862,13.8402 L7.58700207,13.8437357 L7.47983157,13.8325393 L7.3787682,13.8178071 L7.2461841,13.783825 L7.12620829,13.7465036 L7.0194318,13.6972 L6.92447558,13.6406286 L6.84094562,13.580325 L6.76490184,13.5117714 L6.7032394,13.4394857 L6.65004816,13.3636643 L6.60434309,13.2841107 L6.5663212,13.2006286 L6.53578548,13.1177357 L6.51293295,13.03445 L6.49756659,12.9470393 L6.48633733,12.8608071 L6.47885115,12.7783071 L6.47865415,12.694825 L6.48988341,12.5486821 L6.51253894,12.4096107 L6.55016682,12.2772179 L6.59902396,12.1493429 L6.65950438,12.0287357 L6.72747097,11.919325 L6.80666682,11.8140393 L6.89768295,11.7193607 L6.99165415,11.6329321 L7.09744562,11.5537714 L7.20638917,11.4826643 L7.31966682,11.4221643 L7.44023364,11.3697179 L7.56493756,11.328075 L7.69259654,11.2942893 L7.87738687,11.2642357 L7.91934885,11.2603071 L7.96229585,11.2530393 L8.01666912,11.2491107 L8.26115184,11.21945 L8.32931544,11.2157179 L8.3874318,11.20845 L8.55606774,11.1972536 L8.68412074,11.1972536 L8.85610576,11.2047179 L8.93707465,11.2047179 L9.0885712,11.215325 L9.09152627,11.2051107 L9.11398479,11.1375393 L9.13210922,11.061325 L9.13880737,10.9967 L9.12442604,10.9179321 L9.09251129,10.8485929 L9.04956429,10.78495 L8.99322097,10.7328964 L8.92505737,10.6869321 L8.85039263,10.6553071 L8.76430161,10.6342893 L8.67111843,10.6274143 L8.45638341,10.6201464 L8.34172673,10.6201464 L8.22332696,10.6236821 L8.1011841,10.6311464 L7.86379355,10.6533429 L7.63763226,10.6830036 L7.4341265,10.7199321 L7.34527742,10.7383964 L7.26450553,10.7603964 L7.19870599,10.7822 L7.06415184,10.8535036 L7.34567143,9.90043214 L7.43688456,9.86330714 L7.5196265,9.83325357 L7.61024862,9.80693214 L7.79050783,9.76921786 L7.98495138,9.73936071 L8.19141221,9.72443214 L8.41166336,9.71696786 L8.76962074,9.71696786 L9.03065184,9.72443214 L9.1358523,9.73189643 L9.24932696,9.75055714 L9.36595369,9.77687857 L9.4861265,9.81046786 L9.60334424,9.85564643 L9.71622788,9.90828929 L9.82930853,9.97193214 L9.934903,10.0434321 L10.0300562,10.1267179 L10.1135862,10.2172714 L10.1894329,10.3190214 L10.2471553,10.4335393 L10.2855712,10.5555214 L10.3086207,10.6841821 L10.3088177,10.82895 L10.2863592,10.9803964 Z M33.7389698,11.504075 L33.7352267,11.4001643 L33.7241945,11.3037179 L33.7092221,11.2110036 L33.6832175,11.121825 L33.6534698,11.036575 L33.6162359,10.9625214 L33.5717129,10.8918071 L33.5232498,10.8324857 L33.4673005,10.7806286 L33.404062,10.7362357 L33.3370804,10.7063786 L33.2665528,10.6879143 L33.1883419,10.68045 L33.0878696,10.6879143 L32.9948834,10.7028429 L32.9091864,10.7323071 L32.8236864,10.7694321 L32.7492187,10.8177536 L32.6749479,10.877075 L32.6117094,10.940325 L32.548274,11.0106464 L32.4925217,11.0921643 L32.4405124,11.1776107 L32.3920493,11.2665929 L32.3510724,11.3630393 L32.3140355,11.4632179 L32.2842878,11.5632 L32.2543431,11.6708429 L32.2322786,11.7784857 L32.2135631,11.9417179 L32.2210493,12.1196821 L32.2470539,12.301575 L32.29532,12.4760036 L32.3697878,12.6280393 L32.4665171,12.7504143 L32.5892509,12.8321286 L32.7381864,12.8617893 L32.8424018,12.8545214 L32.9391311,12.8321286 L33.0283742,12.8062 L33.1140712,12.7653429 L33.192085,12.7207536 L33.2665528,12.6651643 L33.3370804,12.6023071 L33.4005159,12.535325 L33.4562682,12.4612714 L33.5082774,12.3795571 L33.5567406,12.2941107 L33.5977175,12.2051286 L33.6347544,12.1124143 L33.6645021,12.0159679 L33.6905067,11.9157893 L33.7092221,11.8158071 L33.7279376,11.7117 L33.7389698,11.6040571 L33.7389698,11.504075 Z M35.2897901,8.886075 L35.285456,8.910825 L34.4414882,13.7806821 L33.3674191,13.7806821 L33.4401138,13.3785929 L33.4245505,13.3980393 L33.36013,13.4662 L33.2959065,13.5265036 L33.2275459,13.5799321 L33.1597763,13.62845 L33.0916127,13.6702893 L32.9519364,13.7380571 L32.8794387,13.7647714 L32.7362164,13.8024857 L32.5849168,13.8252714 L32.5134041,13.8325393 L32.4377544,13.8364679 L32.3623016,13.8364679 L32.1672671,13.8215393 L31.9856288,13.7802893 L31.8187659,13.7162536 L31.6672694,13.6296286 L31.5303512,13.5200214 L31.4093903,13.3921464 L31.3035988,13.253075 L31.2127797,13.09495 L31.137327,12.9260214 L31.0772406,12.7500214 L31.0356726,12.5659679 L31.0055309,12.3754321 L30.9941046,12.1841107 L30.9980447,11.98945 L31.0165631,11.7987179 L31.0502509,11.6079857 L31.1063972,11.3875929 L31.1737728,11.1783964 L31.2525747,10.9878607 L31.3463488,10.8079321 L31.4434721,10.6401821 L31.5565528,10.4897179 L31.6727855,10.3551643 L31.7967014,10.2314143 L31.9283005,10.1225929 L32.0677797,10.0285036 L32.2104111,9.9462 L32.3536334,9.88196786 L32.5041449,9.829325 L32.6552475,9.79534286 L32.805759,9.77275357 L32.9604076,9.76528929 L33.0699422,9.768825 L33.1757336,9.78021786 L33.2742359,9.799075 L33.3654491,9.82539643 L33.4521311,9.85545 L33.5283719,9.88943214 L33.6042187,9.931075 L33.6719882,9.972325 L33.7332567,10.0178964 L33.790191,10.0672 L33.8849502,10.1652179 L33.9231691,10.2149143 L33.9818765,10.3007536 L34.2348304,8.886075 L35.2897901,8.886075 Z M24.7443304,12.5370929 L24.6686806,12.5946464 L24.5849537,12.6421821 L24.4941346,12.6820571 L24.4017394,12.7117179 L24.3107233,12.7372536 L24.215373,12.755325 L24.1194318,12.7665214 L24.0280217,12.7737893 L23.8513085,12.7739857 L23.6302694,12.7519857 L23.3883477,12.6971821 L23.2634468,12.6498429 L23.1507601,12.5954321 L23.0522578,12.5304143 L22.9645908,12.4542 L22.88835,12.3713071 L22.8225505,12.2766286 L22.7681772,12.1793964 L22.7275942,12.0692 L22.6944975,11.9595929 L22.6688869,11.8435036 L22.6578546,11.718575 L22.6539145,11.5942357 L22.6614007,11.465575 L22.676176,11.3367179 L22.6982406,11.2049143 L22.7571449,10.9693964 L22.8272786,10.76295 L22.9048984,10.5787 L22.9854733,10.4174321 L23.0737313,10.2817 L23.1651415,10.164825 L23.2602947,10.06995 L23.3586,9.98980714 L23.4608454,9.9242 L23.5634848,9.87293214 L23.6655332,9.83286071 L23.7677786,9.80359286 L23.870418,9.785325 L23.9701023,9.774325 L24.0652555,9.76686071 L24.3386979,9.76666429 L24.5087129,9.78139643 L24.5859387,9.79239643 L24.7334952,9.82186071 L24.8026438,9.83993214 L24.9951173,9.90612857 L25.0496876,9.92793214 L25.2049272,10.0017893 L25.2790009,10.0416643 L25.4734445,8.9672 L25.2437371,8.88312857 L25.0975597,8.83834286 L25.0118627,8.81614643 L24.7230539,8.7527 L24.5063488,8.72284286 L24.3940562,8.71164643 L24.2780205,8.70418214 L24.1578477,8.70045 L24.0158074,8.70418214 L23.8806622,8.71164643 L23.7459111,8.726575 L23.6188431,8.74523571 L23.4913811,8.767825 L23.3716023,8.79395 L23.2551726,8.82400357 L23.1385459,8.861325 L23.0299963,8.902575 L22.9249929,8.94755714 L22.8233385,8.99627143 L22.7218811,9.05264643 L22.6279099,9.11236071 L22.5374848,9.17639643 L22.4513938,9.24730714 L22.3647118,9.32253929 L22.2859099,9.40111071 L22.2108512,9.48361071 L22.1355954,9.57377143 L22.0006472,9.76430714 L21.9368177,9.86939643 L21.8808684,9.97743214 L21.8245251,10.0931286 L21.7721219,10.2090214 L21.7236588,10.3317893 L21.6749986,10.4626107 L21.6336276,10.5932357 L21.5589629,10.8760929 L21.5254721,11.0251821 L21.4955274,11.1785929 L21.4543535,11.4887536 L21.4468673,11.7798607 L21.4622336,12.0456286 L21.5075447,12.2964679 L21.5753143,12.5251107 L21.6655424,12.7348964 L21.7709399,12.9226821 L21.8954468,13.0914143 L22.034532,13.2414857 L22.1850435,13.3723071 L22.3436323,13.4852536 L22.5089191,13.5750214 L22.6820862,13.6500571 L22.8552532,13.7062357 L23.0286173,13.7435571 L23.2007993,13.7622179 L23.4100182,13.7734143 L23.6007187,13.7771464 L23.7687636,13.7734143 L23.915138,13.7657536 L24.0457521,13.7510214 L24.1584387,13.7358964 L24.257532,13.7168429 L24.4123776,13.6677357 L24.4728581,13.6414143 L24.5280194,13.6135214 L24.6038661,13.5602893 L24.6347959,13.5333786 L24.6554813,13.5123607 L24.684047,13.4889857 L24.8526829,12.4907357 L24.8174191,12.4714857 L24.7443304,12.5370929 Z M16.5018546,11.3322 L16.2760873,11.3322 L16.1149376,12.0206821 L16.3686795,12.0195036 L16.5018546,11.3322 Z M16.5534698,11.2897714 L17.8692636,11.2897714 L17.8753707,11.2167 L17.8714306,11.1302714 L17.8639445,11.0495393 L17.8495631,10.9778429 L17.7985389,10.8480036 L17.7266323,10.7446821 L17.6842763,10.7028429 L17.6377832,10.6674857 L17.5840009,10.6356643 L17.5292336,10.6063964 L17.4722993,10.5851821 L17.415168,10.5712357 L17.3533085,10.5604321 L17.287509,10.5531643 L17.2203304,10.5568964 L17.1557129,10.5678964 L17.0938535,10.5824321 L17.032979,10.6040393 L16.9715136,10.6329143 L16.9177313,10.665325 L16.8635551,10.7050036 L16.816865,10.7480214 L16.7697809,10.7987 L16.7260459,10.8531107 L16.6860539,10.9112536 L16.6206484,11.0387357 L16.5956288,11.1104321 L16.5737613,11.1837 L16.5534698,11.2897714 Z M18.4498362,12.7419679 L18.698653,12.5981821 L18.5406553,13.5657893 L18.4120113,13.6302179 L18.2380562,13.69445 L18.1781668,13.7129143 L18.1174894,13.7282357 L17.9854963,13.750825 L17.7457417,13.7732179 L17.6480274,13.7771464 L17.5467671,13.7771464 L17.4321104,13.7806821 L17.3085885,13.7806821 L17.1257682,13.7771464 L16.9380228,13.7582893 L16.7510654,13.7323607 L16.563123,13.6873786 L16.3795147,13.6313964 L16.2029986,13.5602893 L16.0331806,13.4663964 L15.8751829,13.3577714 L15.7282175,13.2302893 L15.5991795,13.0757 L15.4898419,12.9028429 L15.3990228,12.7036643 L15.3347993,12.4818964 L15.2932313,12.2308607 L15.2818051,11.9537 L15.3005205,11.6472714 L15.3152959,11.52745 L15.3379514,11.3893607 L15.3676991,11.2440036 L15.40907,11.0868607 L15.4654134,10.9257893 L15.5327889,10.7651107 L15.619077,10.6001107 L15.7244744,10.4423786 L15.8444502,10.2925036 L15.9914157,10.1497 L16.1568995,10.021825 L16.3450389,9.90927143 L16.56332,9.81518214 L16.8079998,9.74741429 L17.0780931,9.70243214 L17.3818742,9.68730714 L17.5286426,9.69103929 L17.6827002,9.70596786 L17.8367578,9.73209286 L17.9906184,9.76941429 L18.142115,9.82598571 L18.2886864,9.89336071 L18.4254076,9.98391429 L18.5501115,10.0892 L18.6639802,10.2176643 L18.7589364,10.3687179 L18.8349802,10.5421643 L18.8881714,10.7417357 L18.9183131,10.9670393 L18.9222532,11.2218071 L18.8962486,11.5058429 L18.8399053,11.8195393 L18.8202048,12.0631107 L16.4041403,12.0631107 L16.3992152,12.0902179 L16.3958661,12.1542536 L16.4031553,12.2216286 L16.4177336,12.2897893 L16.4429502,12.3573607 L16.4721069,12.4227714 L16.5120988,12.491325 L16.5558339,12.5528071 L16.6068581,12.6146821 L16.7203327,12.7238964 L16.7845562,12.766325 L16.8507498,12.8065929 L16.9230505,12.8388071 L16.9955482,12.86395 L17.0672578,12.8780929 L17.1630021,12.892825 L17.3519295,12.914825 L17.4478707,12.9222893 L17.543615,12.925825 L17.6432993,12.925825 L17.7394376,12.9222893 L17.8391219,12.914825 L17.9380182,12.9002893 L18.0377025,12.881825 L18.141327,12.8596286 L18.2394353,12.826825 L18.4498362,12.7419679 Z M15.0540677,12.92995 L14.9884652,12.9407536 L14.9151795,12.9482179 L14.8359836,12.95195 L14.7487106,12.9448786 L14.6693177,12.9305393 L14.596426,12.9087357 L14.5327935,12.8841821 L14.4902406,12.848825 L14.4555677,12.8038429 L14.4390194,12.7478607 L14.4423684,12.6798964 L14.7963857,10.6280036 L15.451426,10.6464679 L15.5922843,9.76528929 L14.9711288,9.76528929 L15.1236104,8.86741429 L14.0499353,8.86741429 L13.3359906,12.9334857 L13.313532,13.1140036 L13.313532,13.1967 L13.3176691,13.2770393 L13.3292924,13.3499143 L13.3485988,13.4151286 L13.3771645,13.4825036 L13.4165654,13.5371107 L13.4675896,13.5877893 L13.5333892,13.6337536 L13.6060839,13.6718607 L13.6941449,13.7060393 L13.7959963,13.7321643 L13.9165631,13.7547536 L14.0475712,13.7694857 L14.1980827,13.7806821 L14.4831484,13.7806821 L14.6626196,13.7582893 L14.8405147,13.7280393 L14.9459122,13.6942536 L15.0048166,13.6704857 L15.0848005,13.6247179 L15.1177002,13.6013429 L15.2573765,12.8612 L15.2193546,12.8800571 L15.0540677,12.92995 Z M11.7181887,10.8684321 L11.7112935,10.9102714 L11.7114906,10.951325 L11.7223258,10.9947357 L11.7359191,11.0389321 L11.7642878,11.0848964 L11.8001426,11.1312536 L11.8722463,11.1992179 L11.9583373,11.25245 L12.0601887,11.2992 L12.1701173,11.3394679 L12.4114479,11.4170571 L12.5347728,11.4618429 L12.6545516,11.5103607 L12.7686173,11.5745929 L12.8751968,11.65395 L12.97035,11.748825 L13.0511219,11.8666821 L13.1125873,12.01145 L13.1510032,12.1821464 L13.1663696,12.38545 L13.1513972,12.62195 L13.1251956,12.7981464 L13.0798846,12.9531286 L13.0196012,13.096325 L12.9437544,13.22145 L12.8566783,13.3312536 L12.757979,13.4261286 L12.6521876,13.5092179 L12.5349698,13.5811107 L12.413615,13.6376821 L12.2896991,13.6865929 L12.1614491,13.7241107 L12.030047,13.7543607 L11.902388,13.7767536 L11.7778811,13.7881464 L11.6543592,13.7956107 L11.5383235,13.7993429 L11.3777647,13.7993429 L11.2284353,13.7956107 L11.0988062,13.7956107 L10.8635827,13.7881464 L10.6728823,13.7732179 L10.5087774,13.7547536 L10.4358857,13.7396286 L10.3661461,13.7286286 L10.3001495,13.7093786 L10.2380931,13.6950393 L10.0361634,13.6211821 L10.2114975,12.7623964 L10.3080297,12.7857714 L10.3604329,12.8007 L10.6458926,12.8633607 L10.9232751,12.9075571 L11.1271749,12.92995 L11.3413189,12.9370214 L11.4484894,12.9370214 L11.5556599,12.9334857 L11.6598753,12.9114857 L11.7428143,12.8826107 L11.8056588,12.8437179 L11.8539249,12.7950036 L11.8887947,12.7457 L11.9167694,12.6889321 L11.9486841,12.5781464 L11.9551853,12.4791464 L11.9244525,12.3940929 L11.8657452,12.32495 L11.775123,12.2634679 L11.6659825,12.20945 L11.5369445,12.1542536 L11.3929341,12.1027893 L11.2469537,12.043075 L11.0974272,11.9760929 L10.9545988,11.8971286 L10.8218177,11.7993071 L10.7006599,11.6824321 L10.6047187,11.5380571 L10.5357671,11.3671643 L10.5010942,11.1622893 L10.5044433,10.9212714 L10.5233558,10.7741464 L10.5495574,10.6356643 L10.5871853,10.5075929 L10.6322993,10.3873786 L10.6929767,10.2736464 L10.7613373,10.1750393 L10.8405332,10.0807536 L10.9358834,9.99687857 L11.046206,9.92459286 L11.1673638,9.86389643 L11.302706,9.80752143 L11.4540055,9.766075 L11.6230355,9.73228929 L11.8064468,9.70596786 L12.0087705,9.69103929 L12.3675159,9.68730714 L12.714244,9.69850357 L13.099191,9.73562857 L13.1531703,9.74702143 L13.4015931,9.78689643 L13.2028154,10.6659143 L13.1322878,10.6608071 L12.7365055,10.6012893 L12.541274,10.5902893 L12.4642452,10.5902893 L12.3797302,10.5940214 L12.1754364,10.60895 L12.0322141,10.63095 L11.9177544,10.6741643 L11.8671242,10.6995036 L11.8206311,10.7281821 L11.7558166,10.7935929 L11.7351311,10.8315036 L11.7181887,10.8684321 Z" id="Fill-3" fill="#FEFEFE"></path>
                    </g>
                </g>
            </g>
        </g>
    </g>
</svg>