<?xml version="1.0" encoding="UTF-8"?>
<svg width="15px" height="15px" viewBox="0 0 15 15" version="1.1" xmlns="http://www.w3.org/2000/svg" xmlns:xlink="http://www.w3.org/1999/xlink">
    <!-- Generator: Sketch 45.1 (43504) - http://www.bohemiancoding.com/sketch -->
    <title>pinterest</title>
    <desc>Created with Sketch.</desc>
    <defs></defs>
    <g id="Official" stroke="none" stroke-width="1" fill="none" fill-rule="evenodd">
        <g id="Product_page_1" transform="translate(-1212.000000, -218.000000)">
            <g id="Name_&amp;_id" transform="translate(0.000000, 173.000000)">
                <g id="bids_&amp;_views_&amp;_lot-numbers" transform="translate(1101.000000, 20.000000)">
                    <g id="socials" transform="translate(66.000000, 25.000000)">
                        <g id="pinterest" transform="translate(45.000000, 0.000000)">
                            <rect id="Rectangle-4" fill="#BF0110" x="0" y="0" width="15" height="15" rx="4"></rect>
                            <path d="M10.2773218,3.32597864 C9.62047782,2.63213971 8.71147738,2.25 7.71777847,2.25 C6.19985391,2.25 5.2662626,2.93466134 4.75037753,3.50898848 C4.11458504,4.21678004 3.75,5.156585 3.75,6.08748331 C3.75,7.25628762 4.19429763,8.15338803 4.93833303,8.48713377 C4.9882842,8.50965441 5.03854314,8.52099939 5.08781721,8.52099939 C5.24478021,8.52099939 5.36915031,8.4079898 5.41223819,8.22670711 C5.43735227,8.12270578 5.49555169,7.8661398 5.52085043,7.75475576 C5.57501806,7.53479853 5.53125308,7.42900231 5.41313072,7.27582809 C5.19793753,6.99565777 5.09772742,6.66435036 5.09772742,6.23317323 C5.09772742,4.95244302 5.96440941,3.59128195 7.57072568,3.59128195 C8.84526526,3.59128195 9.6370051,4.38837716 9.6370051,5.67147797 C9.6370051,6.4811712 9.47850325,7.23102387 9.19061464,7.78299969 C8.99056375,8.1665279 8.63878197,8.62371383 8.09873691,8.62371383 C7.86520058,8.62371383 7.65542415,8.51815468 7.52305202,8.33412887 C7.39800483,8.16016116 7.35679434,7.93542887 7.40708406,7.70121421 C7.46389851,7.43658821 7.54136437,7.1605495 7.61633728,6.89368838 C7.75307976,6.4062943 7.88234341,5.94595886 7.88234341,5.57868615 C7.88234341,4.95047881 7.53136182,4.52837766 7.00904435,4.52837766 C6.34524474,4.52837766 5.82520477,5.27023804 5.82520477,6.21729025 C5.82520477,6.68175729 5.93738715,7.02915088 5.9881693,7.16254757 C5.90454803,7.55240865 5.40756008,9.8702059 5.31328994,10.3072757 C5.25878377,10.5624193 4.93042333,12.5775933 5.47391542,12.7382857 C6.08456305,12.9188233 6.63039419,10.9561749 6.68594678,10.7343889 C6.73097362,10.5540206 6.88852139,9.87200077 6.98506902,9.45274434 C7.2798517,9.76518859 7.7544955,9.9764085 8.21633605,9.9764085 C9.08698828,9.9764085 9.86998744,9.54529909 10.4211122,8.7625629 C10.9556174,8.00336331 11.25,6.94519799 11.25,5.78313293 C11.25,4.87465367 10.8954483,3.97904335 10.2773218,3.32597864" fill="#FFFFFF"></path>
                        </g>
                    </g>
                </g>
            </g>
        </g>
    </g>
</svg>